; Engine configuration file.
; It's best edited using the editor UI and not directly,
; since the parameters that go here are not all obvious.
;
; Format:
;   [section] ; section goes between []
;   param=value ; assign values to parameters

config_version=4

_global_script_classes=[ {
"base": "",
"class": "GDDepthAI",
"language": "NativeScript",
"path": "res://gd_depthai_native/bin/depthai_native.gdns"
} ]
_global_script_class_icons={
"GDDepthAI": ""
}

[application]

config/name="depthai"
run/main_scene="res://depthai_pointcloud.tscn"
config/icon="res://icon.png"

[display]

window/size/width=960
window/size/height=540
window/vsync/use_vsync=false

[physics]

common/enable_pause_aware_picking=true

[rendering]

quality/depth_prepass/disable_for_vendors="PowerVR,Mali,Adreno"
environment/default_environment="res://default_env.tres"
